…
- DeÄŸiÅŸkenlere isim verilmiÅŸ hali 


```
##   sira  no kitapcik m1 m2 m3 m4 m5 m6 m7 m8 m9 m10
## 1    1 689        A  1  0  1  0  1  0  1  0  1   0
## 2    2 654        B  1  1  1  1  0  1  0  1  0   1
## 3    3 436        A  1  0  1  0  1  1  1  1  1   1
```

-   ğŸ”—[factor.sav](import/factor.sav)


```
## # A tibble: 50 x 3
##       id bolge  puan
##    <dbl> <dbl> <dbl>
##  1     1     1     9
##  2     2     1     8
##  3     3     1     6
##  4     4     1     8
##  5     5     1    10
##  6     6     1     4
##  7     7     1     6
##  8     8     1     5
##  9     9     1     7
## 10    10     1     7
## # i 40 more rows
## tibble [50 x 3] (S3: tbl_df/tbl/data.frame)
##  $ id   : num [1:50] 1 2 3 4 5 6 7 8 9 10 ...
##   ..- attr(*, "format.spss")= chr "F6.2"
##  $ bolge: num [1:50] 1 1 1 1 1 1 1 1 1 1 ...
##   ..- attr(*, "format.spss")= chr "F6.2"
##  $ puan : num [1:50] 9 8 6 8 10 4 6 5 7 7 ...
##   ..- attr(*, "format.spss")= chr "F6.2"
```
…
